Name,Sex,Equipment,Division,BodyweightKg,WeightClassKg,Squat1Kg,Squat2Kg,Squat3Kg,Best3SquatKg,Bench1Kg,Bench2Kg,Bench3Kg,Best3BenchKg,Deadlift1Kg,Deadlift2Kg,Deadlift3Kg,Best3DeadliftKg,TotalKg,Event,Tested,Place
Samantha Bechard,F,Wraps,F_OCR_CPF,55.45,56,162.5,175,180,180,102.5,105,-110,105,185,195,-200,195,480,SBD,,1
Brittany Dewald,F,Wraps,F_OCR_CPF,66.15,67.5,187.5,200,210,210,80,-90,-90,80,207.5,-220,-220,207.5,497.5,SBD,,1
Patrick van Velzen,M,Raw,M_OR_CPF,105.05,110,170,180,192.5,192.5,115,122.5,127.5,127.5,210,-227.5,-227.5,210,530,SBD,,4
Maureen Bornbaum,F,Raw,F_OR_CPF,75,75,177.5,190,200,200,105,112.5,122.5,122.5,200,215,230,230,552.5,SBD,,1
Nikolay Chukalovskiy,M,Wraps,M_TCR_3_CPF,106.8,110,-220,220,-232.5,220,102.5,112.5,-115,112.5,215,235,-250,235,567.5,SBD,,1
Jonathan Bedard,M,Raw,M_OR_CPF,110,110,215,227.5,235,235,155,165,-172.5,165,245,-252.5,-252.5,245,645,SBD,,3
Mike J. Svilans,M,Raw,M_MR_1_CPF,111.5,125,172.5,185,210,210,135,142.5,160,160,227.5,247.5,275,275,645,SBD,,1
Andrew Anctil,M,Wraps,M_OCR_CPF,72.55,75,-270,270,277.5,277.5,145,152.5,155,155,275,285,-292.5,285,717.5,SBD,,1
Phillip Murphy,M,Raw,M_OR_CPF,106.05,110,280,292.5,305,305,170,-180,-180,170,282.5,302.5,317.5,317.5,792.5,SBD,,1
Zackary Parker,M,Raw,M_OR_CPF,107.35,110,235,247.5,260,260,150,160,165,165,292.5,310,320,320,745,SBD,,2
Alastair MacNicol,M,Raw,M_OR_CPF,99.25,100,282.5,310,320,320,177.5,187.5,195,195,320,347.5,-357.5,347.5,862.5,SBD,,1
Jordan Shallow,M,Wraps,M_OCR_CPF,117.35,125,300,315,325,325,160,,,160,300,315,,315,800,SBD,,1
Jean-Christophe Dubé,M,Wraps,M_OCR_CPF,109.2,110,-305,-320,-320,,,,,,,,,,,SBD,,DQ
Joshua Hannah,M,Wraps,M_OCR_CPF,,,,,,,,,,,,,,,,SBD,,NS
Joshua Hannah,M,Wraps,M_SCR_CPF,,,,,,,,,,,,,,,,SBD,,NS
Jennifer Gaudette,F,Raw,F_MR_1_ACPF,57.8,60,60,-67.5,-70,60,37.5,-40,40,40,70,77.5,-85,77.5,177.5,SBD,Yes,1
Marli Ramsey,F,Raw,F_MR_5_ACPF,41.1,44,62.5,-67.5,-70,62.5,42.5,45,47.5,47.5,85,90,95,95,205,SBD,Yes,1
Clara Magalhaes,F,Raw,F_JR_ACPF,50.95,52,87.5,92.5,97.5,97.5,37.5,42.5,-47.5,42.5,92.5,95,97.5,97.5,237.5,SBD,Yes,1
Sydney De Marchi,F,Raw,F_JR_ACPF,72.1,75,105,112.5,115,115,60,65,-75,65,105,125,-137.5,125,305,SBD,Yes,1
Ninette Longsworth,F,Raw,F_MR_3_ACPF,50,52,82.5,87.5,92.5,92.5,52.5,55,-57.5,55,120,125,-130,125,272.5,SBD,Yes,1
Maude Patry,F,Raw,F_SR_ACPF,66.7,67.5,,,,,75,-85,85,85,122.5,130,140,140,225,BD,Yes,1
Monica Rebelo,F,Raw,F_JR_ACPF,53.3,56,102.5,115,-125,115,-47.5,55,60,60,125,135,142.5,142.5,317.5,SBD,Yes,1
Mallory Yhap,F,Raw,F_OR_ACPF,81.05,82.5,130,137.5,145,145,75,82.5,85,85,142.5,150,162.5,162.5,392.5,SBD,Yes,2
Stephanie Dykstra,F,Raw,F_SR_ACPF,90.15,90+,105,-115,117.5,117.5,55,60,-65,60,145,-155,155,155,332.5,SBD,Yes,1
Christina Bruce,F,Raw,F_OR_CPF,66.3,67.5,130,140,147.5,147.5,-72.5,75,-77.5,75,150,162.5,170,170,392.5,SBD,,1
Mia Nikolajev,F,Raw,F_SR_ACPF,77.7,82.5,142.5,-147.5,147.5,147.5,85,87.5,-92.5,87.5,152.5,157.5,-162.5,157.5,392.5,SBD,Yes,1
Victoria Parker,F,Raw,F_OR_ACPF,58.45,60,105,110,112.5,112.5,65,-67.5,-67.5,65,155,160,-170,160,337.5,SBD,Yes,1
Carly Thiffault,F,Raw,F_OR_ACPF,75.3,82.5,145,147.5,150,150,80,-85,-85,80,165,172.5,180,180,410,SBD,Yes,1
Jennifer McConnell,F,Raw,F_OR_ACPF,,,,,,,,,,,,,,,,SBD,Yes,DQ
Komalpreet Kaur,F,Multi-ply,F_OEM_CPF,,,,,,,,,,,,,,,,SBD,,DQ
Sean Weese,M,Raw,M_TR_3_ACPF,72.15,75,125,-137.5,-140,125,80,82.5,-90,82.5,142.5,152.5,160,160,367.5,SBD,Yes,1
Morgan Hunter,M,Raw,M_JR_ACPF,101.5,110,150,160,165,165,95,105,107.5,107.5,177.5,195,-200,195,467.5,SBD,Yes,2
Elvis Cela,M,Raw,M_OR_CPF,99,100,175,-185,195,195,110,120,125,125,185,200,210,210,530,SBD,,2
Mark Kingston,M,Raw,M_JR_ACPF,104.15,110,175,182.5,-195,182.5,95,100,112.5,112.5,185,195,-207.5,195,490,SBD,Yes,1
Jeff Lorefice,M,Wraps,M_JCR_ACPF,78.05,82.5,175,-180,-180,175,110,115,-120,115,-190,,190,190,480,SBD,Yes,1
Adrian Masangkay,M,Raw,M_OR_CPF,79.6,82.5,180,-190,-195,180,100,107.5,-115,107.5,200,220,-240,220,507.5,SBD,,1
Don Campbell,M,Raw,M_OR_CPF,73.35,75,165,177.5,-185,177.5,127.5,135,145,145,210,-217.5,-217.5,210,532.5,SBD,,1
Eliot Zeon,M,Raw,M_OR_ACPF,81.6,82.5,202.5,212.5,-217.5,212.5,115,120,-122.5,120,210,217.5,-227.5,217.5,550,SBD,Yes,1
Kevin Ferris,M,Raw,M_MR_2_ACPF,88.8,90,182.5,200,205,205,125,-127.5,130,130,215,232.5,-235,232.5,567.5,SBD,Yes,1
Jake Elliott,M,Raw,M_OR_ACPF,105.7,110,200,210,220,220,132.5,142.5,147.5,147.5,227.5,235,247.5,247.5,615,SBD,Yes,1
Jeff Stubbings,M,Raw,M_MR_2_ACPF,96.85,100,200,-210,-210,200,115,-125,,115,247.5,262.5,-275,262.5,577.5,SBD,Yes,1
Matthew Cooke,M,Raw,M_SR_ACPF,88.4,90,,,,,155,-165,-177.5,155,255,257.5,262.5,262.5,417.5,BD,Yes,1
Adam Colorado,M,Multi-ply,M_OEM_CPF,119.3,125,,,,,,,,,365,-377.5,,365,365,D,,1
Benedict San Juan,M,Multi-ply,M_OEM_ACPF,74.4,75,,,,,127.5,-135,-135,127.5,,,,,127.5,B,Yes,1
Jason Costantini,M,Raw,M_SR_CPF,140.35,140+,,,,,167.5,177.5,-182.5,177.5,,,,,177.5,B,,1
Michael Krause,M,Raw,M_OR_CPF,88.3,90,,,,,172.5,182.5,185,185,,,,,185,B,,1
Kevin Min,M,Raw,M_JR_ACPF,,,,,,,,,,,,,,,,B,Yes,NS
Waqar Mughal,M,Raw,M_OR_CPF,,,,,,,,,,,,,,,,B,,NS
