Name,BodyweightKg,Best3BenchKg,TotalKg,Event,Equipment,Sex,Division,WeightClassKg,Place
S. Bishop,72.12,151.95,151.95,B,Raw,M,Open,,1
J. Yeiser,72.57,136.08,136.08,B,Raw,M,Open,,3
J. Walker,77.11,140.61,140.61,B,Raw,M,Open,,2
D. Bethel,78.93,136.08,136.08,B,Raw,M,Open,,4
T. Walker,82.1,127.01,127.01,B,Raw,M,Open,,5
G. Higdon,55.34,90.72,90.72,B,Raw,M,Open,,7
R. Grone,74.84,95.25,95.25,B,Raw,M,Open,,6
R. Puckett,51.26,61.24,61.24,B,Raw,M,Open,,8
