Place,Sex,Name,CyrillicName,BodyweightKg,Squat1Kg,Squat2Kg,Squat3Kg,Best3SquatKg,Squat4Kg,Bench1Kg,Bench2Kg,Bench3Kg,Best3BenchKg,Bench4Kg,Deadlift1Kg,Deadlift2Kg,Deadlift3Kg,Best3DeadliftKg,Deadlift4Kg,TotalKg,WeightClassKg,Event,Equipment,Tested,Division,Age,BirthDate
1,F,Elena Pimenova,Елена Пименова,67.5,75,-82.5,-85,75,,47.5,-52.5,-52.5,47.5,,80,100,-115,100,,222.5,67.5,SBD,Raw,No,Open,32,1984-08-13
1,M,Maksim Melnikov,Максим Мельников,98.4,180,-190,-190,180,,-130,130,-140,130,,-195,195,200,200,,510,100,SBD,Raw,No,Teen 16-17,16,2000-02-21
1,M,Dmitriy Lipatov,Дмитрий Липатов,94,230,240,-250,240,,180,190,-200,190,,260,275,290,290,300,720,100,SBD,Raw,No,Juniors 20-23,23,1993-04-11
1,M,Mariya Zhuravleva,Мария Журавлева,55.8,-75,85,-95,85,,30,37.5,-42.5,37.5,,85,92.5,100,100,,222.5,56,SBD,Wraps,No,Juniors 20-23,20,1996-01-06
1,M,Sergey Karpukhin,Сергей Карпухин,82,160,175,182.5,182.5,,125,132.5,137.5,137.5,,190,205,215,215,,535,82.5,SBD,Wraps,No,Open,28,1988-04-22
1,M,Aleksey Anokhin,Алексей Анохин,107.5,180,200,,200,,,,,,,,,,,,200,110,S,Multi-ply,No,Open,29,1986-12-12
DQ,F,Elena Pimenova,Елена Пименова,67.5,,,,,,-52.5,,,,,,,,,,,67.5,B,Raw,No,Open,32,1984-08-13
1,M,Anton Shurupov,Антон Шурупов,64.3,,,,,,90,-92.5,-92.5,90,,,,,,,90,67.5,B,Raw,No,Teen 18-19,18,1998-01-23
1,M,Egor Gusev,Егор Гусев,65.1,,,,,,90,95,100,100,,,,,,,100,67.5,B,Raw,No,Juniors 20-23,20,1996-06-12
1,M,Aleksandr Levin,Александр Левин,66,,,,,,100,110,115,115,,,,,,,115,67.5,B,Raw,No,Open,24,1992-10-01
DQ,M,Andrey Khlystov,Андрей Хлыстов,70,,,,,,-100,,,,,,,,,,,75,B,Raw,No,Teen 18-19,18,1998-09-15
1,M,Roman Gusev,Роман Гусев,74.5,,,,,,125,130,135,135,,,,,,,135,75,B,Raw,No,Juniors 20-23,23,1993-01-17
1,M,Sergey Denisov,Сергей Денисов,74.2,,,,,,165,-170,170,170,,,,,,,170,75,B,Raw,No,Open,27,1988-10-25
2,M,Anatoliy Troyashkin,Анатолий Трояшкин,73.5,,,,,,140,145,150,150,,,,,,,150,75,B,Raw,No,Open,27,1989-01-16
3,M,Vladimir Slavin,Владимир Славин,73.4,,,,,,140,145,147.5,147.5,,,,,,,147.5,75,B,Raw,No,Open,26,1990-02-18
4,M,Aleksey Popov,Алексей Попов,74.3,,,,,,135,142.5,147.5,147.5,,,,,,,147.5,75,B,Raw,No,Open,29,1986-12-26
5,M,Rafael Kurkaev,Рафаэль Куркаев,74.1,,,,,,-110,110,-117.5,110,,,,,,,110,75,B,Raw,No,Open,39,1977-09-05
1,M,Daniil Sarbaev,Даниил Сарбаев,79.4,,,,,,145,152.5,,152.5,,,,,,,152.5,82.5,B,Raw,No,Juniors 20-23,22,1994-09-11
2,M,Vladislav Kologorov,Владислав Кологоров,80.8,,,,,,115,120,-122.5,120,,,,,,,120,82.5,B,Raw,No,Juniors 20-23,20,1995-12-01
1,M,Pavel Dvoryadkin,Павел Дворядкин,80,,,,,,150,155,160,160,,,,,,,160,82.5,B,Raw,No,Open,30,1986-06-11
1,M,Dmitriy Andreev,Дмитрий Андреев,87.5,,,,,,-165,165,170,170,,,,,,,170,90,B,Raw,No,Juniors 20-23,23,1993-02-16
DQ,M,Vladimir Ryzhenkov,Владимир Рыженков,87,,,,,,-130,,,,,,,,,,,90,B,Raw,No,Juniors 20-23,20,1996-05-12
1,M,Pavel Kondratev,Павел Кондратьев,88.9,,,,,,165,175,-180,175,,,,,,,175,90,B,Raw,No,Open,27,1989-09-20
DQ,M,Sergey Karsyanov,Сергей Карсянов,89.6,,,,,,-160,-160,,,,,,,,,,90,B,Raw,No,Open,26,1989-12-22
1,M,Artyom Kaipov,Артём Каипов,99.7,,,,,,190,-195,-195,190,,,,,,,190,100,B,Raw,No,Juniors 20-23,21,1994-12-09
1,M,Pavel Prikhodko,Павел Приходько,97.8,,,,,,180,190,197.5,197.5,202.5,,,,,,197.5,100,B,Raw,No,Open,36,1980-05-23
2,M,Artyom Kaipov,Артём Каипов,99.7,,,,,,190,-195,-195,190,,,,,,,190,100,B,Raw,No,Open,21,1994-12-09
3,M,Artur Manukyan,Артур Манукян,93.9,,,,,,145,155,-157.5,155,,,,,,,155,100,B,Raw,No,Open,24,1992-05-04
1,M,Aleksandr Zhukov,Александр Жуков,102.7,,,,,,185,-195,-195,185,,,,,,,185,110,B,Raw,No,Open,33,1983-03-13
1,M,Vladislav Shalin,Владислав Шалин,120.8,,,,,,135,142.5,-150,142.5,,,,,,,142.5,125,B,Raw,No,Teen 16-17,17,1999-01-08
1,M,Roman Zemlyakov,Роман Земляков,119.1,,,,,,205,210,-212.5,210,,,,,,,210,125,B,Raw,No,Open,28,1988-08-24
DQ,M,Aleksandr Tsybulskiy,Александр Цыбульский,121.8,,,,,,-155,-155,-155,,,,,,,,,125,B,Raw,No,Open,27,1989-06-28
1,M,Anatoliy Troyashkin,Анатолий Трояшкин,73.5,,,,,,160,170,-180,170,,,,,,,170,75,B,Single-ply,No,Open,27,1989-01-16
1,M,Pavel Dvoryadkin,Павел Дворядкин,80,,,,,,170,180,185,185,,,,,,,185,82.5,B,Single-ply,No,Open,30,1986-06-11
1,M,Anatoliy Troyashkin,Анатолий Трояшкин,73.5,,,,,,-170,170,180,180,,,,,,,180,75,B,Multi-ply,No,Open,27,1989-01-16
1,M,Pavel Dvoryadkin,Павел Дворядкин,80,,,,,,-180,180,190,190,,,,,,,190,82.5,B,Multi-ply,No,Open,30,1986-06-11
1,M,Vladimir Grushin,Владимир Грушин,88,,,,,,190,-210,-210,190,,,,,,,190,90,B,Multi-ply,No,Open,30,1985-12-04
1,F,Svetlana Shipitsyna,Светлана Шипицына,51.1,,,,,,,,,,,80,-90,-90,80,,80,52,D,Raw,No,Open,24,1992-08-28
1,F,Elena Sidorova,Елена Сидорова,55.2,,,,,,,,,,,-105,105,-115,105,,105,56,D,Raw,No,Open,27,1989-04-17
1,F,Elena Pimenova,Елена Пименова,67.5,,,,,,,,,,,80,100,-115,100,,100,67.5,D,Raw,No,Open,32,1984-08-13
1,M,Anton Shurupov,Антон Шурупов,64.3,,,,,,,,,,,135,145,-150,145,,145,67.5,D,Raw,No,Teen 18-19,18,1998-01-23
1,M,Aleksandr Levin,Александр Левин,66,,,,,,,,,,,180,190,200,200,,200,67.5,D,Raw,No,Open,24,1992-10-01
1,M,Aleksandr Gasilin,Александр Гасилин,73.5,,,,,,,,,,,-195,205,215,215,-220,215,75,D,Raw,No,Teen 18-19,18,1997-12-12
1,M,Ilya Trunin,Илья Трунин,75.6,,,,,,,,,,,170,180,-195,180,,180,82.5,D,Raw,No,Teen 16-17,17,1999-07-30
1,M,Konstantin Zhilinskiy,Константин Жилинский,107.6,,,,,,,,,,,165,180,192.5,192.5,,192.5,110,D,Raw,No,Teen 18-19,19,1997-05-13
1,M,Aleksey Petrunin,Алексей Петрунин,110.4,,,,,,,,,,,310,335,350,350,,350,125,D,Raw,No,Open,34,1982-01-31
