Place,Name,Division,Country,BodyweightKg,Squat1Kg,Squat2Kg,Squat3Kg,Best3SquatKg,Bench1Kg,Bench2Kg,Bench3Kg,Best3BenchKg,Bench4Kg,Deadlift1Kg,Deadlift2Kg,Deadlift3Kg,Best3DeadliftKg,Deadlift4Kg,TotalKg,WeightClassKg,Sex,CyrillicName,BirthYear,Equipment,Event
1,Tatyana Polstyanova,O,Kyrgyzstan,42.3,120,-130,-130,120,60,62.5,-65,62.5,,130,135,-137.5,135,,317.5,44,F,,1967,Wraps,SBD
1,Aleksandra Kim,O,Kyrgyzstan,48,70,90,100,100,35,40,-45,40,,70,-100,100,100,,240,48,F,,1986,Wraps,SBD
DQ,Anna Belova,O,Kyrgyzstan,48,,,,,,,,,,,,,,,,48,F,,1992,Wraps,SBD
1,Valentina Tarasova,O,Kazakhstan,50.4,117.5,122.5,-130,122.5,-72.5,72.5,-75,72.5,,135,142.5,-147.5,142.5,,337.5,52,F,,1975,Wraps,SBD
1,Roksana Nabieva,O,Kyrgyzstan,55.25,-110,110,-115,110,65,70,72.5,72.5,,125,135,142.5,142.5,,325,56,F,,1987,Wraps,SBD
DQ,Tatyana Lomova,O,Kyrgyzstan,56,,,,,,,,,,,,,,,,56,F,,1981,Wraps,SBD
DQ,Olga Tray,O,Kazakhstan,56,,,,,,,,,,,,,,,,56,F,,1987,Wraps,SBD
1,Olga Zhilenko,O,Kyrgyzstan,59.8,-160,160,170,170,80,-82.5,-82.5,80,,160,-170,-170,160,,410,60,F,,1977,Wraps,SBD
DQ,Tatyana Lomova,O,Kyrgyzstan,60,,,,,,,,,,,,,,,,60,F,,1981,Wraps,SBD
1,Alina Rychagova,T2,Kyrgyzstan,61.65,100,-110,-112.5,100,35,-40,-40,35,,130,-140,140,140,,275,67.5,F,,2001,Wraps,SBD
1,Darya Chernysheva,J,Kazakhstan,64.9,110,125,137.5,137.5,70,80,-85,80,,110,125,137.5,137.5,,355,67.5,F,,1998,Wraps,SBD
1,Lyubov Maleeva,O,Kyrgyzstan,67.5,170,180,-190,180,107.5,115,117.5,117.5,,170,-177.5,-177.5,170,,467.5,67.5,F,,1977,Wraps,SBD
2,Olga Genievskaya,O,Kyrgyzstan,65.2,100,-110,-112.5,100,37.5,-42.5,42.5,42.5,,120,130,-140,130,,272.5,67.5,F,,1992,Wraps,SBD
1,Natalya Tyugay,M3,Kazakhstan,64,80,85,-90,85,50,55,-57.5,55,,105,112.5,-117.5,112.5,,252.5,67.5,F,,1967,Wraps,SBD
1,Tatyana Kabakova,O,Kyrgyzstan,69.1,-80,80,90,90,60,-65,-65,60,,135,-150,150,150,,300,75,F,,1972,Wraps,SBD
1,Tatyana Kabakova,M2,Kyrgyzstan,69.1,-80,80,90,90,60,-65,-65,60,,135,-150,150,150,,300,75,F,,1972,Wraps,SBD
1,Natalya Fedorova,M5,Kyrgyzstan,71.55,-60,60,65,65,45,-50,50,50,,50,60,70,70,,185,75,F,,1957,Wraps,SBD
1,Darya Nesterova,O,Kazakhstan,82.5,180,190,200,200,100,-105,-105,100,,160,170,185,185,,485,82.5,F,,1994,Wraps,SBD
DQ,Davletbek Zhumaev,T1,,45,,,,,,,,,,,,,,,,52,M,,2004,Wraps,SBD
1,Murodzhon Mukhtaramov,T2,Tajikistan,51.75,-100,110,-120,110,-50,60,-70,60,,100,120,130,130,,300,52,M,,2003,Wraps,SBD
1,Dastan Narynbekov,T1,,54.9,-115,120,-125,120,65,70,-75,70,,125,135,142.5,142.5,,332.5,56,M,,2003,Wraps,SBD
1,Shokhrukh Sharifov,T2,Tajikistan,55.65,120,130,140,140,90,95,100,100,,-140,150,160,160,,400,56,M,,2002,Wraps,SBD
1,Iygilik Alimbaev,T3,,55.75,-125,125,130,130,70,-80,-80,70,,160,170,-180,170,,370,56,M,,1999,Wraps,SBD
1,Abdiraim Urkunchiev,J,,55.9,120,127.5,-132.5,127.5,85,90,92.5,92.5,,160,170,175,175,,395,56,M,,1997,Wraps,SBD
DQ,Bakhramkhozha Mikhmankhodzhaev,J,Kyrgyzstan,55.55,-145,-145,-145,,-92.5,,,,,-140,,,,,,56,M,,1998,Wraps,SBD
1,Ilkhomchon Nuridinov,T2,Tajikistan,60,90,100,-110,100,80,85,92.5,92.5,,125,135,,135,,327.5,60,M,,2002,Wraps,SBD
1,Maksim Kucheryavykh,T3,Kyrgyzstan,58.35,140,-150,150,150,70,-77.5,-77.5,70,,140,155,-165,155,,375,60,M,,2001,Wraps,SBD
1,Islam Aripov,J,Kazakhstan,58.85,-180,180,-195,180,105,110,-115,110,,165,175,182.5,182.5,,472.5,60,M,,1997,Wraps,SBD
2,Oybek Berdimuratov,J,Tajikistan,58.55,130,-135,-135,130,-95,95,100,100,,160,-170,-170,160,,390,60,M,,1999,Wraps,SBD
1,Islam Aripov,O,Kazakhstan,58.85,-180,180,-195,180,105,110,-115,110,,165,175,182.5,182.5,,472.5,60,M,,1997,Wraps,SBD
2,Maksim Kucheryavykh,O,Kyrgyzstan,58.35,140,-150,150,150,70,-77.5,-77.5,70,,140,155,-165,155,,375,60,M,,2001,Wraps,SBD
1,Zikirillo Saidkhosilov,T1,,65,100,110,115,115,60,-65,67.5,67.5,,-135,135,137.5,137.5,,320,67.5,M,,2004,Wraps,SBD
DQ,Mukhammadali Abdurazakov,T2,,65.05,100,110,117.5,117.5,85,87.5,90,90,,-135,-135,-135,,,,67.5,M,,2002,Wraps,SBD
DQ,Uulu Makhamad,T2,,67.5,,,,,,,,,,,,,,,,67.5,M,,2002,Wraps,SBD
1,Bakhramzhon Sabirov,T3,,64.55,160,-170,-170,160,100,-110,-110,100,,-200,230,-260,230,,490,67.5,M,,1999,Wraps,SBD
2,Kurbonali Safaraliev,T3,Tajikistan,67.5,135,145,155,155,105,115,120,120,,165,185,-195,185,,460,67.5,M,,2000,Wraps,SBD
3,Nikita Ladygin,T3,Kyrgyzstan,67.45,120,130,-140,130,95,-100,-100,95,,125,-135,137.5,137.5,,362.5,67.5,M,,2000,Wraps,SBD
1,Avazbek Tuychiev,J,,67.5,150,160,170,170,120,125,-130,125,,180,190,195,195,,490,67.5,M,,1995,Wraps,SBD
1,Andrey Kim,O,Kazakhstan,66.2,250,-270,-275,250,160,170,-175,170,,250,257.5,-266,257.5,,677.5,67.5,M,,1986,Wraps,SBD
2,Daulet Aubakirov,O,Kazakhstan,66.8,220,-235,240,240,115,120,,120,,190,200,-210,200,,560,67.5,M,,1974,Wraps,SBD
1,Ayazhan Maldybaev,M1,Kazakhstan,67.4,90,110,125,125,90,107.5,-115,107.5,,110,130,-150,130,,362.5,67.5,M,,1977,Wraps,SBD
1,Daulet Aubakirov,M2,Kazakhstan,66.8,220,-235,240,240,115,120,,120,,190,200,-210,200,,560,67.5,M,,1974,Wraps,SBD
1,Oleg Sheptunov,T1,Kyrgyzstan,71.45,85,90,95,95,40,-50,50,50,,90,100,105,105,,250,75,M,,2007,Wraps,SBD
1,Vladislav Buterus,T2,Kyrgyzstan,73,-190,190,-200,190,105,-110,-110,105,,200,210,-220,210,,505,75,M,,2001,Wraps,SBD
2,Khozhiakbar Tursunov,T2,,75,140,145,152.5,152.5,80,-85,85,85,,170,180,185,185,,422.5,75,M,,2002,Wraps,SBD
3,Aleksandr Andreev,T2,Ukraine,70.3,-140,140,150,150,70,75,80,80,,160,170,-180,170,,400,75,M,Александр Андреев,2003,Wraps,SBD
DQ,Makhmasaid Rakhimov,T3,Tajikistan,75,,,,,,,,,,,,,,,,75,M,,1999,Wraps,SBD
1,Nikolay Peskov,J,Kyrgyzstan,73.4,215,230,-235,230,135,142.5,-145,142.5,,195,-205,-205,195,,567.5,75,M,,1995,Wraps,SBD
1,Ruslan Silin,O,,74.75,225,-235,235,235,150,160,165,165,,220,237.5,-247.5,237.5,,637.5,75,M,,1991,Wraps,SBD
2,Vladimir Kobelev,O,Kyrgyzstan,72.3,230,240,-250,240,115,125,-132.5,125,,-220,230,-240,230,,595,75,M,,1987,Wraps,SBD
3,Siekhvush Valiev,O,Tajikistan,68.85,185,-195,-195,185,150,157.5,160,160,,210,220,-225,220,,565,75,M,,1988,Wraps,SBD
DQ,Mansur Karimzhanov,O,,70,,,,,,,,,,,,,,,,75,M,,1993,Wraps,SBD
1,Ubaydullo Rakhmonov,T3,Tajikistan,78.55,125,135,142.5,142.5,90,-100,-100,90,,155,-170,175,175,,407.5,82.5,M,,2001,Wraps,SBD
DQ,Artur Zaletdinov,T3,Kyrgyzstan,82.3,-205,-205,-205,,-100,,,,,-210,,,,,,82.5,M,,2000,Wraps,SBD
DQ,Ruslan Mustapaev,T3,Kyrgyzstan,80.2,-190,-190,-190,,-115,,,,,-200,,,,,,82.5,M,,2000,Wraps,SBD
1,Evgeniy Brostovskiy,J,Kyrgyzstan,80.9,200,220,-230,220,135,-140,-140,135,,240,260,-265,260,,615,82.5,M,,1997,Wraps,SBD
2,Iminzhan Nurzhanov,J,Kyrgyzstan,82.05,-225,225,240,240,140,-150,-150,140,,200,-220,-220,200,,580,82.5,M,,1996,Wraps,SBD
3,Akhnur Baykeev,J,Kazakhstan,80.2,180,195,-200,195,100,-115,120,120,,190,200,210,210,,525,82.5,M,,1998,Wraps,SBD
4,Boburmirzo Ibragimov,J,,78.35,-140,145,155,155,-125,125,127.5,127.5,,175,180,-200,180,,462.5,82.5,M,,1995,Wraps,SBD
DQ,Aknur Bakeev,J,Kazakhstan,82.5,,,,,,,,,,,,,,,,82.5,M,,1998,Wraps,SBD
1,Peter Kucheriavykh,O,Kyrgyzstan,81.3,260,290,-300,290,145,155,162.5,162.5,,270,290,-300,290,,742.5,82.5,M,,1988,Wraps,SBD
2,Artem Kagarmanov,O,Kazakhstan,82.3,230,-240,-250,230,-165,165,,165,,230,245,-260,245,,640,82.5,M,,1989,Wraps,SBD
3,Vitaliy Ten,O,Kyrgyzstan,81.4,200,215,225,225,145,152.5,157.5,157.5,,200,220,232.5,232.5,,615,82.5,M,,1984,Wraps,SBD
DQ,Uulu Khusan,O,,80,,,,,,,,,,,,,,,,82.5,M,,1994,Wraps,SBD
1,Evgeniy Varekhov,M1,Kyrgyzstan,81.6,180,190,,190,145,-150,,145,,190,200,-210,200,,535,82.5,M,,1976,Wraps,SBD
1,Vladimir Gavrish,M2,Kazakhstan,81.65,190,200,207.5,207.5,117.5,122.5,-127.5,122.5,,190,205,217.5,217.5,,547.5,82.5,M,,1972,Wraps,SBD
1,Aleksandr Tyugay,M3,Kazakhstan,81.6,205,215,-220,215,130,137.5,142.5,142.5,,190,200,-210,200,,557.5,82.5,M,,1966,Wraps,SBD
DQ,Chubak Saparbekov,T3,,90,,,,,,,,,,,,,,,,90,M,,2000,Wraps,SBD
1,Mustafa Ardzhmanov,J,,90,-250,255,270,270,125,130,-135,130,,225,235,247.5,247.5,,647.5,90,M,,1998,Wraps,SBD
2,Polat Fazliev,J,Kyrgyzstan,84.7,230,-245,-245,230,160,170,-180,170,,225,235,-250,235,,635,90,M,,1996,Wraps,SBD
3,Yuriy Bereznev,J,Kyrgyzstan,83.95,210,-225,-225,210,110,120,-130,120,,195,210,220,220,,550,90,M,,1995,Wraps,SBD
4,Somon Rasulov,J,Tajikistan,86.9,180,-190,190,190,125,132.5,135,135,,190,200,210,210,,535,90,M,,1996,Wraps,SBD
DQ,Azizbek Mamadaliev,J,,87.95,-170,-170,-170,,-110,,,,,-200,,,,,,90,M,,1997,Wraps,SBD
DQ,Mustafa Arzhumanov,J,,90,,,,,,,,,,,,,,,,90,M,,1998,Wraps,SBD
1,Vyacheslav Bondarev,O,Kazakhstan,89,230,-245,-250,230,170,-175,177.5,177.5,,240,255,262.5,262.5,,670,90,M,,1968,Wraps,SBD
2,Adil Surtubaev,O,Kazakhstan,88.2,-220,220,-230,220,155,160,-170,160,,190,200,210,210,,590,90,M,,1991,Wraps,SBD
3,Nikolay Vereschagin,O,Kazakhstan,84,190,-200,-200,190,145,155,-165,155,,-190,190,-200,190,,535,90,M,,1987,Wraps,SBD
DQ,Ruslan Chernikov,O,Kazakhstan,90,,,,,,,,,,,,,,,,90,M,,1985,Wraps,SBD
DQ,Sanzharbek Zhumaev,O,,90,,,,,,,,,,,,,,,,90,M,,1991,Wraps,SBD
1,Boobek Salymbekov,M1,Kyrgyzstan,84.7,-150,150,-165,150,110,-115,-115,110,,160,-170,-170,160,,420,90,M,,1978,Wraps,SBD
1,Vyacheslav Bondarev,M3,Kazakhstan,89,230,-245,-250,230,170,-175,177.5,177.5,,240,255,262.5,262.5,,670,90,M,,1968,Wraps,SBD
1,Oleg Medvedev,J,Kazakhstan,96.55,220,240,,240,140,-160,160,160,,230,242.5,257.5,257.5,,657.5,100,M,,1995,Wraps,SBD
2,Samim Mirulloev,J,Kyrgyzstan,98.25,240,250,-260,250,140,152.5,-160,152.5,,220,240,-255,240,,642.5,100,M,,1995,Wraps,SBD
1,Aleksandr Belimov,O,Kyrgyzstan,91.6,-315,320,-330,320,185,195,-200,195,,285,-300,-300,285,,800,100,M,,1988,Wraps,SBD
2,Andrey Nevezhin,O,Kazakhstan,97.3,270,290,-305,290,170,180,187.5,187.5,,270,-290,-290,270,,747.5,100,M,,1977,Wraps,SBD
3,Oleg Altunin,O,Kyrgyzstan,97.8,-280,280,-285,280,170,-175,-175,170,,-280,280,,280,,730,100,M,,1987,Wraps,SBD
DQ,Singh Harjit,O,,100,,,,,,,,,,,,,,,,100,M,,1993,Wraps,SBD
DQ,Khidir Babakhaev,O,Kazakhstan,100,,,,,,,,,,,,,,,,100,M,,1985,Wraps,SBD
1,Andrey Nevezhin,M1,Kazakhstan,97.3,270,290,-305,290,170,180,187.5,187.5,,270,-290,-290,270,,747.5,100,M,,1977,Wraps,SBD
2,Vyacheslav Rimar,M1,Kazakhstan,91.3,220,240,-250,240,120,135,-145,135,,220,230,-240,230,,605,100,M,,1977,Wraps,SBD
3,Dilshod Nazimov,M1,,98.5,170,180,-190,180,120,125,130,130,,-160,165,175,175,,485,100,M,,1974,Wraps,SBD
DQ,Konstantin Udalov,M1,Kazakhstan,93.2,200,210,220,220,160,-170,,160,,-240,-240,,,,,100,M,,1974,Wraps,SBD
1,Rustam Mirzabaev,M3,Kazakhstan,92.55,-120,120,140,140,112.5,120,-127.5,120,,120,140,-160,140,,400,100,M,,1966,Wraps,SBD
1,Valerian Metelnikov,M4,Kyrgyzstan,97.85,125,-130,135,135,107.5,-110,112.5,112.5,,140,145,150,150,,397.5,100,M,,1961,Wraps,SBD
1,Rudik Gyaurov,T3,Kazakhstan,105.85,150,170,185,185,110,-120,-120,110,,200,215,-230,215,,510,110,M,,1999,Wraps,SBD
1,Artur Lyubokonskis,O,Kyrgyzstan,106,-270,285,-300,285,175,185,190,190,,270,290,305,305,,780,110,M,,1984,Wraps,SBD
2,Evgeniy Shkorko,O,Kazakhstan,103.6,250,-260,,250,200,207.5,212.5,212.5,,250,270,302.5,302.5,,765,110,M,,1991,Wraps,SBD
3,Vladislav Stepanyuk,O,Kyrgyzstan,106.2,220,230,240,240,-150,160,165,165,,220,230,240,240,,645,110,M,,1994,Wraps,SBD
DQ,Kodirzhan Mominov,O,,110,,,,,,,,,,,,,,,,110,M,,1985,Wraps,SBD
1,Bakhtiyar Abdurazakov,M1,,107.3,135,140,150,150,130,137.5,-142.5,137.5,,-167.5,170,175,175,,462.5,110,M,,1976,Wraps,SBD
1,Murat Dzhaytabarov,M4,Kazakhstan,106.75,180,200,220,220,150,157.5,,157.5,,180,200,220,220,,597.5,110,M,,1963,Wraps,SBD
1,Marat Dzhaylaubaev,M5,Kazakhstan,100.6,150,170,190,190,110,125,-135,125,,150,170,190,190,,505,110,M,,1956,Wraps,SBD
1,Efim Emtsev,O,Kazakhstan,123.25,245,255,-265,255,177.5,185,190,190,,290,302.5,305,305,,750,125,M,,1984,Wraps,SBD
2,Dmitriy Izmaylov,O,Kyrgyzstan,113.8,240,-255,-260,240,140,-150,150,150,,250,-265,-265,250,,640,125,M,,1989,Wraps,SBD
3,Kholmurodzhon Ormonov,O,,111.5,160,170,180,180,120,127.5,132.5,132.5,,185,200,210,210,,522.5,125,M,,1988,Wraps,SBD
1,Nurlan Madaminov,M3,,112.8,160,170,180,180,90,-100,100,100,,150,165,180,180,,460,125,M,,1968,Wraps,SBD
1,Abdykayym Musaev,M5,Kyrgyzstan,121.3,190,205,,205,145,155,160,160,,200,220,230,230,,595,125,M,,1958,Wraps,SBD
2,Rashid Bariev,M5,Kazakhstan,112.05,160,170,180,180,-135,142.5,150,150,,165,180,200,200,,530,125,M,,1959,Wraps,SBD
1,Dmitriy Sizykh,O,Kyrgyzstan,127.35,200,220,235,235,145,160,170,170,,210,225,-235,225,,630,140,M,,1990,Wraps,SBD
DQ,Erzhan Baysenov,M2,Kazakhstan,140,,,,,,,,,,,,,,,,140,M,,1973,Wraps,SBD
1,Anna Frolkina,O,Kyrgyzstan,64.95,70,80,90,90,45,50,-55,50,,85,100,110,110,,250,67.5,F,,1986,Raw,SBD
DQ,Aleksandr Barkalov,O,Kyrgyzstan,67.5,,,,,,,,,,,,,,,,67.5,M,,1983,Raw,SBD
1,Artem Paranin,T3,Kyrgyzstan,71.4,150,-155,-155,150,95,100,-102.5,100,,155,165,172.5,172.5,,422.5,75,M,,1999,Raw,SBD
1,Nikita Koshelev,T1,Kazakhstan,78.6,-115,125,-130,125,75,82.5,87.5,87.5,,135,145,157.5,157.5,,370,82.5,M,,2004,Raw,SBD
1,Zhalil Zhaparov,O,Kyrgyzstan,82.45,180,200,210,210,135,145,150,150,,-180,205,225,225,,585,82.5,M,,1993,Raw,SBD
DQ,Aleksandr Kosarev,O,Kazakhstan,100,,,,,,,,,,,,,,,,100,M,,1984,Raw,SBD
1,Ivan Ponomarenko,O,Kyrgyzstan,114.4,200,220,,220,160,170,175,175,,220,230,-240,230,,625,125,M,,1983,Raw,SBD
1,Evgeniya Komanova,O,,50.2,70,-75,-75,70,30,35,-37.5,35,,80,85,90,90,,195,52,F,,1983,Multi-ply,SBD
1,Timur Torogeldiev,T1,,58.7,80,85,92.5,92.5,50,55,60,60,,115,120,127.5,127.5,,280,60,M,,2004,Multi-ply,SBD
1,Nikita Ponamarev,T2,Kyrgyzstan,58.45,-100,-100,100,100,60,67.5,-72.5,67.5,,110,-120,-120,110,,277.5,60,M,,2002,Multi-ply,SBD
1,Elaman Zakirbaev,J,Kyrgyzstan,73.8,125,-135,-135,125,80,85,-90,85,,160,165,-175,165,,375,75,M,,1996,Multi-ply,SBD
1,Evgeniy Zhunaev,O,Kyrgyzstan,82.45,-150,150,-165,150,130,140,-150,140,,180,190,200,200,,490,82.5,M,,1991,Multi-ply,SBD
2,Almaz Nazaraliev,O,Kyrgyzstan,80.65,170,190,205,205,85,100,-105,100,,-170,170,-180,170,,475,82.5,M,,1982,Multi-ply,SBD
3,Mirzobobur Nasriddinov,O,Tajikistan,80.9,150,165,-170,165,110,120,-125,120,,160,180,-202.5,180,,465,82.5,M,,1989,Multi-ply,SBD
DQ,Kyzy Ruslan,O,Kyrgyzstan,55,,,,,,,,,,,,,,,,56,F,,1989,Single-ply,SBD
1,Kyzy Nurlan,J,,65.8,-60,65,-70,65,35,40,42.5,42.5,,95,100,105,105,,212.5,67.5,F,,1998,Single-ply,SBD
1,Elena Vitovskaya,O,Kyrgyzstan,70.2,-65,65,75,75,35,-45,-45,35,,70,80,-90,80,,190,75,F,,1982,Single-ply,SBD
1,Nikita Efimov #3,T2,Kyrgyzstan,58.4,-100,-100,100,100,65,70,-77.5,70,,135,150,-160,150,,320,60,M,,2002,Single-ply,SBD
DQ,Rakhmatulla Akhmedov,J,,60,,,,,,,,,,,,,,,,60,M,,1996,Single-ply,SBD
1,Artem Soldatenkov,O,,80.3,190,210,220,220,120,130,-145,130,,200,210,222.5,222.5,,572.5,82.5,M,,1995,Single-ply,SBD
2,Yan Svatkovskiy,O,Kyrgyzstan,79.75,185,200,205,205,145,155,-162.5,155,,210,-225,-225,210,,570,82.5,M,,1989,Single-ply,SBD
1,Vadim Golovkin,O,Kazakhstan,86.9,220,250,270,270,170,-185,-190,170,,220,240,-250,240,,680,90,M,,1979,Single-ply,SBD
2,Shakhobiddin Abdusatarov,O,,83.6,-165,165,170,170,100,105,107.5,107.5,,170,180,190,190,,467.5,90,M,,1989,Single-ply,SBD
1,Daljeet Singh,M1,,87.7,250,-280,280,280,120,140,-150,140,,230,-245,-245,230,,650,90,M,,1979,Single-ply,SBD
1,Viktor Golovkin,M6,Kazakhstan,83.3,180,200,210,210,80,-90,90,90,,-180,180,-250,180,,480,90,M,,1949,Single-ply,SBD
DQ,Anna Belova,O,Kyrgyzstan,48,,,,,,,,,,,,,,,,48,F,,1992,Raw,B
1,Aleksandra Bekker,J,Kyrgyzstan,52.35,,,,,52,57.5,-60,57.5,,,,,,,57.5,56,F,,1995,Raw,B
DQ,Tatyana Lomova,O,Kyrgyzstan,56,,,,,,,,,,,,,,,,56,F,,1981,Raw,B
DQ,Olga Tray,O,Kazakhstan,56,,,,,,,,,,,,,,,,56,F,,1987,Raw,B
1,Alena Tyryshkina,M1,Kyrgyzstan,55.5,,,,,45,47.5,50,50,-52.5,,,,,,50,56,F,,1977,Raw,B
DQ,Anzhelika Fink,T1,Kyrgyzstan,58.6,,,,,-47.5,-47.5,-47.5,,,,,,,,,60,F,,2004,Raw,B
1,Valeriya Bryukhovskikh,J,Kyrgyzstan,58.9,,,,,65,-72.5,-72.5,65,,,,,,,65,60,F,,1997,Raw,B
1,Nelli Abisheva,O,Kazakhstan,57.3,,,,,62.5,67.5,70,70,,,,,,,70,60,F,,1989,Raw,B
DQ,Roksana Nabieva,O,Kyrgyzstan,60,,,,,,,,,,,,,,,,60,F,,1987,Raw,B
DQ,Tatyana Lomova,O,Kyrgyzstan,60,,,,,,,,,,,,,,,,60,F,,1981,Raw,B
DQ,Oksana Kaznacheeva,O,Kazakhstan,67.5,,,,,,,,,,,,,,,,67.5,F,,1984,Raw,B
1,Nailya Takutdinova,M3,Kyrgyzstan,67,,,,,60,65,70,70,-72.5,,,,,,70,67.5,F,,1966,Raw,B
1,Lyubov Maleeva,O,Kyrgyzstan,71.35,,,,,107.5,115,-117.5,115,,,,,,,115,75,F,,1977,Raw,B
2,Olga Aleshkevich,O,Kyrgyzstan,70.3,,,,,100,110,-115,110,,,,,,,110,75,F,,1987,Raw,B
3,Galina Vakulina,O,Kyrgyzstan,73.35,,,,,60,65,-70,65,,,,,,,65,75,F,,1987,Raw,B
4,Anastasiya Ischenko,O,Kyrgyzstan,71.2,,,,,37.5,40,42.5,42.5,,,,,,,42.5,75,F,,1994,Raw,B
DQ,Tatyana Kabakova,O,Kyrgyzstan,69.8,,,,,-60,,,,,,,,,,,75,F,,1972,Raw,B
DQ,Tatyana Kabakova,M2,Kyrgyzstan,69.8,,,,,-60,,,,,,,,,,,75,F,,1972,Raw,B
1,Roza Zhabelova,M3,Kyrgyzstan,74.5,,,,,75,80,-82.5,80,,,,,,,80,75,F,,1968,Raw,B
DQ,Irina Shelingovskaya,O,Kazakhstan,82.5,,,,,,,,,,,,,,,,82.5,F,,1965,Raw,B
1,Dina Kurchenko,M2,Kyrgyzstan,78.9,,,,,60,-70,-70,60,,,,,,,60,82.5,F,,1972,Raw,B
1,Ilya Lukonin,T1,Kyrgyzstan,36.75,,,,,-35,35,-37.5,35,,,,,,,35,52,M,,2006,Raw,B
DQ,Aleksey Ilyasov,T3,Kyrgyzstan,52,,,,,,,,,,,,,,,,52,M,,2000,Raw,B
1,Daniil Kolesnikov,T2,Kyrgyzstan,55.6,,,,,90,100,105,105,,,,,,,105,56,M,,2002,Raw,B
2,Syymyk Bekmuratov,T2,,54.6,,,,,90,95,-105,95,,,,,,,95,56,M,,2002,Raw,B
1,Ulan Urumkanov,O,Kyrgyzstan,55.75,,,,,80,90,-95,90,,,,,,,90,56,M,,1986,Raw,B
1,Talantbek Sayitov,M1,,53.75,,,,,65,70,-75,70,,,,,,,70,56,M,,1978,Raw,B
1,Shokhrukh Sharifov,T2,Tajikistan,56.6,,,,,95,100,-102.5,100,,,,,,,100,60,M,,2002,Raw,B
2,Aziz Kerimakunov,T2,Kyrgyzstan,59.95,,,,,65,-72.5,-72.5,65,,,,,,,65,60,M,,2002,Raw,B
1,Sirozhiddin Zhumaev,J,Uzbekistan,60,,,,,110,117.5,-122.5,117.5,,,,,,,117.5,60,M,,1997,Raw,B
2,Oybek Berdimuratov,J,Tajikistan,59.9,,,,,95,100,105,105,,,,,,,105,60,M,,1999,Raw,B
1,Kantemir Tagaev,O,Kyrgyzstan,59.8,,,,,100,107.5,-115,107.5,,,,,,,107.5,60,M,,1988,Raw,B
DQ,Vladimir Kobelev,O,Kyrgyzstan,60,,,,,,,,,,,,,,,,60,M,,1987,Raw,B
1,Timofey Zakablukov,T1,Kyrgyzstan,62.45,,,,,70,75,-77.5,75,,,,,,,75,67.5,M,,2006,Raw,B
2,Zikirillo Saidkhosilov,T1,,65.55,,,,,60,67.5,70,70,,,,,,,70,67.5,M,,2004,Raw,B
3,Makhammadali Uraimov,T1,,62.6,,,,,50,60,-67.5,60,,,,,,,60,67.5,M,,2004,Raw,B
1,Ilkhomchon Nuridinov,T2,Tajikistan,61,,,,,85,90,92.5,92.5,,,,,,,92.5,67.5,M,,2002,Raw,B
2,Mukhammadali Abdurazakov,T2,,64.2,,,,,-85,85,-90,85,,,,,,,85,67.5,M,,2002,Raw,B
3,Aleksey Sivukhin,T2,Kyrgyzstan,66.5,,,,,-85,85,-90,85,,,,,,,85,67.5,M,,2003,Raw,B
DQ,Vyacheslav Rassokhin,T2,,67.5,,,,,,,,,,,,,,,,67.5,M,,2001,Raw,B
1,Kurbonali Safaraliev,T3,Tajikistan,66.9,,,,,105,115,120,120,,,,,,,120,67.5,M,,2000,Raw,B
1,Babur Mikhmankhodzhaev,J,Kyrgyzstan,66.65,,,,,105,110,-112.5,110,,,,,,,110,67.5,M,,1995,Raw,B
1,Bakhtiyar Sadykov,O,Kyrgyzstan,67.4,,,,,155,-157.5,,155,,,,,,,155,67.5,M,,1989,Raw,B
2,Viktor Chervonnykh,O,Kazakhstan,66.5,,,,,70,-75,80,80,,,,,,,80,67.5,M,,1980,Raw,B
1,Ruslan Goncharov,T3,Kyrgyzstan,73,,,,,115,-122.5,-122.5,115,,,,,,,115,75,M,,1999,Raw,B
1,Maksim Schelkanov,J,Kazakhstan,73.45,,,,,90,100,110,110,,,,,,,110,75,M,,1999,Raw,B
DQ,Aleksey Voznyuk,J,Kazakhstan,75,,,,,,,,,,,,,,,,75,M,,1996,Raw,B
1,Siekhvush Valiev,O,Tajikistan,71.6,,,,,150,160,-162.5,160,,,,,,,160,75,M,,1988,Raw,B
2,Chyngyz Mamakeev,O,Kyrgyzstan,73.9,,,,,150,-160,-160,150,,,,,,,150,75,M,,1994,Raw,B
1,Almaz Sartkaraev,M2,Kyrgyzstan,74.7,,,,,-100,100,105,105,,,,,,,105,75,M,,1973,Raw,B
1,Bolotbek Kenzhebaev,M3,Kyrgyzstan,73,,,,,-95,100,-102.5,100,,,,,,,100,75,M,,1968,Raw,B
1,Nikolay Lavrikov,M5,Kyrgyzstan,74.6,,,,,115,120,125,125,,,,,,,125,75,M,,1959,Raw,B
DQ,Emir Kangeldiev,T1,Kyrgyzstan,76.05,,,,,-80,,,,,,,,,,,82.5,M,,2003,Raw,B
1,Ruslan Sukhikh,T2,Kyrgyzstan,82.3,,,,,127.5,132.5,137.5,137.5,,,,,,,137.5,82.5,M,,2001,Raw,B
DQ,Iminzhan Nurzhanov,J,Kyrgyzstan,82.5,,,,,,,,,,,,,,,,82.5,M,,1996,Raw,B
1,Zaur Kurdanov,O,Kyrgyzstan,82.3,,,,,-220,220,-230,220,,,,,,,220,82.5,M,,1994,Raw,B
DQ,Nikolay Vereschagin,O,Kazakhstan,82.5,,,,,,,,,,,,,,,,82.5,M,,1987,Raw,B
DQ,Sardal Khakhmuradov,O,Kyrgyzstan,82.5,,,,,,,,,,,,,,,,82.5,M,,1995,Raw,B
DQ,Mavlyudov Rustam,O,Kazakhstan,82.5,,,,,,,,,,,,,,,,82.5,M,,1991,Raw,B
DQ,Evgeniy Varekhov,M1,Kyrgyzstan,82.5,,,,,,,,,,,,,,,,82.5,M,,1976,Raw,B
1,Aleksandr Tyugay,M3,Kazakhstan,82.5,,,,,132.5,137.5,145,145,,,,,,,145,82.5,M,,1966,Raw,B
1,Somon Rasulov,J,Tajikistan,86.6,,,,,125,135,-137.5,135,,,,,,,135,90,M,,1996,Raw,B
1,Uulu Makhamatkul,O,Kyrgyzstan,89,,,,,170,175,-180,175,,,,,,,175,90,M,,1991,Raw,B
DQ,Ruslan Greev,O,Kazakhstan,90,,,,,,,,,,,,,,,,90,M,,1986,Raw,B
DQ,Aleksandr Smirnov,O,Kazakhstan,90,,,,,,,,,,,,,,,,90,M,,1992,Raw,B
DQ,Vyacheslav Pozharov,O,Kazakhstan,90,,,,,,,,,,,,,,,,90,M,,1986,Raw,B
DQ,Mirkhan Kuzembaev,O,Kazakhstan,90,,,,,,,,,,,,,,,,90,M,,1986,Raw,B
1,Azimdzhan Kadyrov,M1,Kyrgyzstan,90,,,,,-165,170,-180,170,,,,,,,170,90,M,,1976,Raw,B
1,Vyacheslav Bondarev,M3,Kazakhstan,90,,,,,172.5,-180,-180,172.5,,,,,,,172.5,90,M,,1968,Raw,B
1,Roman Kharasov,M5,Kyrgyzstan,84,,,,,60,70,75,75,-80,,,,,,75,90,M,,1957,Raw,B
DQ,Iosif Nikitchenko,T2,Kyrgyzstan,98.95,,,,,-160,-160,-160,,,,,,,,,100,M,,2001,Raw,B
1,Nikita Fomin,J,Kyrgyzstan,97.85,,,,,170,175,180,180,,,,,,,180,100,M,,1997,Raw,B
2,Oleg Medvedev,J,Kazakhstan,98.05,,,,,150,-160,-160,150,,,,,,,150,100,M,,1995,Raw,B
1,Takhir Suluev,O,Kyrgyzstan,100,,,,,200,205,-207.5,205,,,,,,,205,100,M,,1974,Raw,B
2,Bakhtiyar Mukhametov,O,Kyrgyzstan,99.8,,,,,190,205,-210,205,,,,,,,205,100,M,,1970,Raw,B
3,Gennadiy Khvan,O,Kazakhstan,97.75,,,,,200,-205,-207.5,200,,,,,,,200,100,M,,1958,Raw,B
4,Grigoriy Akulenko,O,Kyrgyzstan,99.8,,,,,175,177.5,180,180,,,,,,,180,100,M,,1990,Raw,B
5,Sergey Panteleev,O,Kyrgyzstan,100,,,,,140,-165,-165,140,,,,,,,140,100,M,,1981,Raw,B
6,Igor Petrov,O,Kyrgyzstan,97.7,,,,,120,-130,-135,120,,,,,,,120,100,M,,1983,Raw,B
1,Takhir Suluev,M1,Kyrgyzstan,100,,,,,200,205,-207.5,205,,,,,,,205,100,M,,1974,Raw,B
2,Vyacheslav Rimar,M1,Kazakhstan,91.9,,,,,-130,130,140,140,,,,,,,140,100,M,,1977,Raw,B
DQ,Konstantin Udalov,M1,Kazakhstan,100,,,,,,,,,,,,,,,,100,M,,1974,Raw,B
1,Bakhtiyar Mukhametov,M2,Kyrgyzstan,99.8,,,,,190,205,-210,205,,,,,,,205,100,M,,1970,Raw,B
2,Gennadiy Krechin,M2,Kazakhstan,98.75,,,,,190,-197.5,-205,190,,,,,,,190,100,M,,1974,Raw,B
1,Radik Kaleev,M3,Kyrgyzstan,93.7,,,,,130,135,140,140,,,,,,,140,100,M,,1966,Raw,B
2,Rustam Mirzabaev,M3,Kazakhstan,92.9,,,,,110,117.5,-127.5,117.5,,,,,,,117.5,100,M,,1966,Raw,B
1,Valerian Metelnikov,M4,Kyrgyzstan,97.7,,,,,110,115,-117.5,115,,,,,,,115,100,M,,1961,Raw,B
1,Gennadiy Khvan,M5,Kazakhstan,97.75,,,,,200,-205,-207.5,200,,,,,,,200,100,M,,1958,Raw,B
DQ,Sanzhar Sayatov,J,Kazakhstan,107.1,,,,,-195,-195,-195,,,,,,,,,110,M,,1996,Raw,B
DQ,Zhandaulet Yryskul,J,Kazakhstan,110,,,,,,,,,,,,,,,,110,M,,1996,Raw,B
1,Maksim Olkhovskiy,O,Kazakhstan,108.7,,,,,230,240,-245,240,,,,,,,240,110,M,,1989,Raw,B
2,Artem Kozyrev,O,Kyrgyzstan,109.5,,,,,205,215,-230,215,,,,,,,215,110,M,,1984,Raw,B
3,Maksim Bragin,O,Kyrgyzstan,107.15,,,,,180,-190,-190,180,,,,,,,180,110,M,,1979,Raw,B
DQ,Kodirzhan Mominov,O,,110,,,,,,,,,,,,,,,,110,M,,1985,Raw,B
DQ,Emilbek Nadyrbaev,O,Kyrgyzstan,110,,,,,,,,,,,,,,,,110,M,,1986,Raw,B
1,Sergey Afonin,M1,Kazakhstan,104.85,,,,,185,-192.5,-197.5,185,,,,,,,185,110,M,,1974,Raw,B
2,Andrey Zelenin,M1,Kazakhstan,107.25,,,,,160,170,-180,170,,,,,,,170,110,M,,1975,Raw,B
DQ,Adel Amraev,M1,Kyrgyzstan,105.3,,,,,-180,-180,,,,,,,,,,110,M,,1975,Raw,B
1,Shamil Berdaliev,M3,Kyrgyzstan,110,,,,,140,155,-165,155,,,,,,,155,110,M,,1965,Raw,B
1,Murat Dzhaytabarov,M4,Kazakhstan,108,,,,,130,,,130,,,,,,,130,110,M,,1963,Raw,B
1,Aleksey Fedyaev,O,Kazakhstan,114.6,,,,,195,205,215,215,,,,,,,215,125,M,,1976,Raw,B
2,Yuriy Sheptunov,O,Kyrgyzstan,115.45,,,,,175,180,-185,180,,,,,,,180,125,M,,1986,Raw,B
1,Oleg Zhitnikov,M1,Kazakhstan,113.2,,,,,170,180,185,185,,,,,,,185,125,M,,1975,Raw,B
1,Sultan Madaminov,T2,Kyrgyzstan,126,,,,,55,60,65,65,-67.5,,,,,,65,140,M,,2002,Raw,B
1,Avazbek Khalapov,O,,130.75,,,,,205,215,-220,215,,,,,,,215,140,M,,1983,Raw,B
1,Bagram Rakhimov,M1,Kazakhstan,132.55,,,,,190,200,205,205,,,,,,,205,140,M,,1976,Raw,B
DQ,Kalys Sariev,J,Kyrgyzstan,60,,,,,,,,,,,,,,,,60,M,,1998,Multi-ply,B
1,Dilshod Kadirkhodzhaev,O,,66.6,,,,,85,90,95,95,,,,,,,95,67.5,M,,1987,Multi-ply,B
1,Igor Petrov,O,Kyrgyzstan,98.3,,,,,100,110,-120,110,,,,,,,110,100,M,,1983,Multi-ply,B
1,Vladimir Omelkov,O,Russia,102.1,,,,,-220,220,-227.5,220,,,,,,,220,110,M,Владимир Омельков,1970,Multi-ply,B
2,Sergey Panteleev,O,Kyrgyzstan,103.6,,,,,100,-120,-130,100,,,,,,,100,110,M,,1981,Multi-ply,B
1,Vladimir Omelkov,M2,Russia,102.1,,,,,-220,220,-227.5,220,,,,,,,220,110,M,Владимир Омельков,1970,Multi-ply,B
1,Aleksandr Gagolin,O,Kazakhstan,80.8,,,,,360,-370,,360,,,,,,,360,82.5,M,,1987,Multi-ply,B
1,Vyacheslav Tunkin,O,Kazakhstan,99.95,,,,,-380,390,405,405,,,,,,,405,100,M,,1980,Multi-ply,B
DQ,Kseniya Pavlova,O,Kyrgyzstan,56,,,,,,,,,,,,,,,,56,F,,1989,Single-ply,B
1,Elena Vitovskaya,O,Kyrgyzstan,71.15,,,,,35,40,42.5,42.5,,,,,,,42.5,75,F,,1982,Single-ply,B
1,Islambek Akhmatzhanov,J,,73.3,,,,,95,105,-110,105,,,,,,,105,75,M,,1998,Single-ply,B
DQ,Bakhtiyar Mukhametov,O,Kyrgyzstan,100,,,,,-270,-270,-292.5,,,,,,,,,100,M,,1970,Single-ply,B
DQ,Bakhtiyar Mukhametov,M2,Kyrgyzstan,100,,,,,-270,-270,-292.5,,,,,,,,,100,M,,1970,Single-ply,B
1,Sultan Madaminov,T2,Kyrgyzstan,126,,,,,50,55,-60,55,,,,,,,55,140,M,,2002,Single-ply,B
1,Valentina Tarasova,O,Kazakhstan,50.4,,,,,107.5,110,-112,110,,,,,,,110,52,F,,1975,Multi-ply,B
1,Bakhtiyar Sadykov,O,Kyrgyzstan,67.4,,,,,215,-225,-225,215,,,,,,,215,67.5,M,,1989,Multi-ply,B
1,Aleksandr Gagolin,O,Kazakhstan,80.7,,,,,330,-340,350,350,,,,,,,350,82.5,M,,1987,Multi-ply,B
2,Vitaliy Krasnoyarov,O,Kazakhstan,80.55,,,,,260,272.5,-290,272.5,,,,,,,272.5,82.5,M,,1993,Multi-ply,B
DQ,Aleksandr Tyugay,M3,Kazakhstan,82.5,,,,,,,,,,,,,,,,82.5,M,,1966,Multi-ply,B
1,Danil Drach,O,Kyrgyzstan,89.85,,,,,255,275,-292.5,275,,,,,,,275,90,M,,1980,Multi-ply,B
2,Viktor Ilin,O,Kazakhstan,88.8,,,,,250,260,275,275,,,,,,,275,90,M,,1984,Multi-ply,B
3,Mikhail Babkin,O,Kyrgyzstan,88.55,,,,,190,-205,-210,190,,,,,,,190,90,M,,1985,Multi-ply,B
DQ,Dmitriy Mikhaylyuk,O,Kazakhstan,89.7,,,,,-245,-245,-252.5,,,,,,,,,90,M,,1989,Multi-ply,B
1,Vyacheslav Tunkin,O,Kazakhstan,99.95,,,,,350,372.5,-395,372.5,,,,,,,372.5,100,M,,1980,Multi-ply,B
2,Vitaliy Matyukov,O,Kyrgyzstan,97.2,,,,,235,250,-272.5,250,,,,,,,250,100,M,,1982,Multi-ply,B
3,Aleksandr Klass,O,Kazakhstan,100,,,,,250,-260,-260,250,,,,,,,250,100,M,,1991,Multi-ply,B
4,Zhasulan Konisov,O,Kazakhstan,90.25,,,,,200,-220,-220,200,,,,,,,200,100,M,,1982,Multi-ply,B
DQ,Bakhtiyar Mukhametov,O,Kyrgyzstan,99.8,,,,,-300,-312,-312.5,,,,,,,,,100,M,,1970,Multi-ply,B
DQ,Takhir Suluev,O,Kyrgyzstan,100,,,,,-280,,,,,,,,,,,100,M,,1974,Multi-ply,B
DQ,Takhir Suluev,M1,Kyrgyzstan,100,,,,,-280,,,,,,,,,,,100,M,,1974,Multi-ply,B
1,Gennadiy Krechin,M2,Kazakhstan,98.75,,,,,-260,260,280,280,,,,,,,280,100,M,,1974,Multi-ply,B
DQ,Bakhtiyar Mukhametov,M2,Kyrgyzstan,99.8,,,,,-300,-312,-312.5,,,,,,,,,100,M,,1970,Multi-ply,B
1,Roman Shkarlet,J,Kyrgyzstan,101.3,,,,,235,-250,-250,235,,,,,,,235,110,M,,1996,Multi-ply,B
1,Andrey Skok,O,Kyrgyzstan,108.45,,,,,290,-302.5,305,305,,,,,,,305,110,M,,1988,Multi-ply,B
2,Vladimir Omelkov,O,Russia,102.5,,,,,210,-225,225,225,,,,,,,225,110,M,Владимир Омельков,1970,Multi-ply,B
1,Nikolay Doguzov,M1,Kyrgyzstan,107.35,,,,,270,-290,-290,270,,,,,,,270,110,M,,1979,Multi-ply,B
DQ,Sergey Afonin,M1,Kazakhstan,104.85,,,,,-290,-290,-300,,,,,,,,,110,M,,1974,Multi-ply,B
1,Vladimir Omelkov,M2,Russia,102.5,,,,,210,-225,225,225,,,,,,,225,110,M,Владимир Омельков,1970,Multi-ply,B
1,Murat Dzhaytabarov,M4,Kazakhstan,108,,,,,-190,210,-230,210,,,,,,,210,110,M,,1963,Multi-ply,B
1,Rashid Bariev,M5,Kazakhstan,108.25,,,,,-190,190,200,200,,,,,,,200,110,M,,1959,Multi-ply,B
1,Oleg Pecheykin,O,Kazakhstan,124.9,,,,,-280,280,-305,280,,,,,,,280,125,M,,1982,Multi-ply,B
1,Bagram Rakhimov,M1,Kazakhstan,132.5,,,,,290,-320,320,320,,,,,,,320,140,M,,1976,Multi-ply,B
1,Tatyana Polstyanova,O,Kyrgyzstan,45.05,,,,,,,,,,130,-135,-135,130,,130,48,F,,1967,Raw,D
DQ,Anna Belova,O,Kyrgyzstan,48,,,,,,,,,,,,,,,,48,F,,1992,Raw,D
1,Aleksandra Kim,O,Kyrgyzstan,51.25,,,,,,,,,,70,100,105,105,,105,52,F,,1986,Raw,D
2,Yuliya Fetisova,O,Kyrgyzstan,48.05,,,,,,,,,,50,60,70,70,,70,52,F,,1994,Raw,D
1,Guldana Alikhan,T2,Kazakhstan,52.4,,,,,,,,,,80,90,-100,90,,90,56,F,,2002,Raw,D
DQ,Tatyana Lomova,O,Kyrgyzstan,56,,,,,,,,,,,,,,,,56,F,,1981,Raw,D
DQ,Darya Ushmodina,O,Kyrgyzstan,56,,,,,,,,,,,,,,,,56,F,,1995,Raw,D
1,Anzhelika Fink,T1,Kyrgyzstan,58.6,,,,,,,,,,-120,125,-130,125,,125,60,F,,2004,Raw,D
1,Angelina Cheremushkina,T2,Kyrgyzstan,57.55,,,,,,,,,,80,90,-100,90,,90,60,F,,2002,Raw,D
2,Viktoriya Danilova,T2,Kyrgyzstan,56.15,,,,,,,,,,30,40,60,60,,60,60,F,,2002,Raw,D
DQ,Roksana Nabieva,O,Kyrgyzstan,60,,,,,,,,,,,,,,,,60,F,,1987,Raw,D
DQ,Tatyana Lomova,O,Kyrgyzstan,60,,,,,,,,,,,,,,,,60,F,,1981,Raw,D
1,Kyzy Nurlan,J,,65.8,,,,,,,,,,100,105,107.5,107.5,,107.5,67.5,F,,1998,Raw,D
1,Anastasiya Onischenko,O,Kazakhstan,66.85,,,,,,,,,,185,195,-202.5,195,,195,67.5,F,,1986,Raw,D
2,Olga Zhilenko,O,Kyrgyzstan,62.85,,,,,,,,,,150,160,-170,160,,160,67.5,F,,1977,Raw,D
DQ,Oksana Kaznacheeva,O,Kazakhstan,67.5,,,,,,,,,,,,,,,,67.5,F,,1984,Raw,D
DQ,Tatyana Kabakova,O,Kyrgyzstan,69.8,,,,,,,,,,-135,,,,,,75,F,,1972,Raw,D
DQ,Lyubov Maleeva,O,Kyrgyzstan,71.35,,,,,,,,,,-165,,,,,,75,F,,1977,Raw,D
DQ,Tatyana Kabakova,M2,Kyrgyzstan,69.8,,,,,,,,,,-135,,,,,,75,F,,1972,Raw,D
1,Roza Zhabelova,M3,Kyrgyzstan,74.5,,,,,,,,,,135,140,145,145,,145,75,F,,1968,Raw,D
DQ,Davletbek Zhumaev,T1,,45,,,,,,,,,,,,,,,,52,M,,2004,Raw,D
1,Murodzhon Mukhtaramov,T2,Tajikistan,51.9,,,,,,,,,,-120,130,-135,130,,130,52,M,,2003,Raw,D
1,Dastan Narynbekov,T1,,55.3,,,,,,,,,,135,-145,145,145,,145,56,M,,2003,Raw,D
2,Mansur Tairov,T1,Kyrgyzstan,55.75,,,,,,,,,,75,85,90,90,,90,56,M,,2008,Raw,D
1,Serikbolsyn Sabyrkhan,T2,Kazakhstan,54.05,,,,,,,,,,120,130,-150,130,,130,56,M,,2002,Raw,D
1,Iygilik Alimbaev,T3,,55.8,,,,,,,,,,170,-180,-180,170,,170,56,M,,1999,Raw,D
1,Talantbek Sayitov,M1,,53.75,,,,,,,,,,80,90,100,100,,100,56,M,,1978,Raw,D
1,Khozhiakbar Abdulkhamidov,T1,,56.15,,,,,,,,,,-120,125,137.5,137.5,,137.5,60,M,,2004,Raw,D
2,Salokhiddin Abduvakhibov,T1,,59.45,,,,,,,,,,115,135,-142.5,135,,135,60,M,,2004,Raw,D
3,Timur Torogeldiev,T1,,59.5,,,,,,,,,,120,127.5,-135,127.5,,127.5,60,M,,2004,Raw,D
1,Aziz Kerimakunov,T2,Kyrgyzstan,59.95,,,,,,,,,,-120,127.5,-132.5,127.5,,127.5,60,M,,2002,Raw,D
1,Khasanboy Abdrakhmanov,T3,,56.85,,,,,,,,,,130,-140,142.5,142.5,,142.5,60,M,,1999,Raw,D
1,Abdiraim Urkunchiev,J,,56.25,,,,,,,,,,165,172.5,,172.5,,172.5,60,M,,1997,Raw,D
DQ,Vladimir Kobelev,O,Kyrgyzstan,60,,,,,,,,,,,,,,,,60,M,,1987,Raw,D
1,Makhammadali Uraimov,T1,,62.6,,,,,,,,,,105,115,130,130,,130,67.5,M,,2004,Raw,D
2,Timofey Zakablukov,T1,Kyrgyzstan,62.45,,,,,,,,,,117.5,122.5,127.5,127.5,,127.5,67.5,M,,2006,Raw,D
3,Sultan Altay,T1,Kazakhstan,64.7,,,,,,,,,,60,70,80,80,,80,67.5,M,,2007,Raw,D
DQ,Sultan Altay,T1,Kazakhstan,67.5,,,,,,,,,,,,,,,,67.5,M,,2007,Raw,D
1,Arsen Tanabay,T2,Kazakhstan,66.25,,,,,,,,,,150,170,190,190,,190,67.5,M,,2002,Raw,D
1,Bakhramzhon Sabirov,T3,,64.7,,,,,,,,,,220,-235,-235,220,,220,67.5,M,,1999,Raw,D
2,Kurbonali Safaraliev,T3,Tajikistan,66.9,,,,,,,,,,165,185,190,190,,190,67.5,M,,2000,Raw,D
3,Akmollidin Bektemirov,T3,,67.35,,,,,,,,,,145,160,170,170,,170,67.5,M,,2000,Raw,D
4,Maksim Kucheryavykh,T3,Kyrgyzstan,60.65,,,,,,,,,,140,160,165,165,,165,67.5,M,,2001,Raw,D
DQ,Uulu Ramsudin,J,Kyrgyzstan,67.5,,,,,,,,,,,,,,,,67.5,M,,1997,Raw,D
1,Bakhramzhon Sabirov,O,,64.7,,,,,,,,,,220,-235,-235,220,,220,67.5,M,,1999,Raw,D
2,Viktor Chervonnykh,O,Kazakhstan,66.5,,,,,,,,,,140,145,150,150,,150,67.5,M,,1980,Raw,D
1,Khozhiakbar Tursunov,T2,,74.95,,,,,,,,,,180,187.5,192.5,192.5,,192.5,75,M,,2002,Raw,D
2,Azimzhon Mamashev,T2,,72.45,,,,,,,,,,-150,165,-180,165,,165,75,M,,2001,Raw,D
3,Ruslan Zaripov,T2,Kyrgyzstan,72.75,,,,,,,,,,115,125,135,135,,135,75,M,,2002,Raw,D
DQ,Valeriy Baloban,J,Kazakhstan,75,,,,,,,,,,,,,,,,75,M,,1995,Raw,D
1,Ilya Shtefan,O,Kazakhstan,74.05,,,,,,,,,,240,255,262.5,262.5,,262.5,75,M,,1991,Raw,D
2,Roman Buterus,O,Kyrgyzstan,70.6,,,,,,,,,,240,250,-255,250,,250,75,M,,1989,Raw,D
1,Nikita Koshelev,T1,Kazakhstan,78.6,,,,,,,,,,130,150,160,160,,160,82.5,M,,2004,Raw,D
1,Ruslan Sukhikh,T2,Kyrgyzstan,82.3,,,,,,,,,,190,-210,-210,190,,190,82.5,M,,2001,Raw,D
2,Shabdan Moldokmatov,T2,Kyrgyzstan,77.2,,,,,,,,,,-100,-100,160,160,,160,82.5,M,,2002,Raw,D
1,Artur Zaletdinov,T3,Kyrgyzstan,81.3,,,,,,,,,,205,215,225,225,,225,82.5,M,,2000,Raw,D
2,Ubaydullo Rakhmonov,T3,Tajikistan,77.55,,,,,,,,,,160,180,185,185,,185,82.5,M,,2001,Raw,D
1,Evgeniy Brostovskiy,J,Kyrgyzstan,81.15,,,,,,,,,,240,255,-262.5,255,,255,82.5,M,,1997,Raw,D
2,Daniyar Yargaev,J,Kyrgyzstan,80.15,,,,,,,,,,-215,215,-222.5,215,,215,82.5,M,,1999,Raw,D
DQ,Denis Vasilyev,J,Kyrgyzstan,82.5,,,,,,,,,,,,,,,,82.5,M,,1999,Raw,D
1,Igor Tomilov,O,Kazakhstan,82.1,,,,,,,,,,260,275,285,285,,285,82.5,M,,1989,Raw,D
2,Aleksandr Ryzhikh,O,Kyrgyzstan,80.45,,,,,,,,,,190,210,225,225,,225,82.5,M,,1992,Raw,D
DQ,Peter Kucheriavykh,O,Kyrgyzstan,82.15,,,,,,,,,,-260,,,,,,82.5,M,,1988,Raw,D
1,Ruslan Mustapaev,T3,Kyrgyzstan,85.6,,,,,,,,,,180,200,212.5,212.5,,212.5,90,M,,2000,Raw,D
1,Mustafa Ardzhmanov,J,,89.9,,,,,,,,,,-225,235,250,250,,250,90,M,,1998,Raw,D
2,Somon Rasulov,J,Tajikistan,86.6,,,,,,,,,,190,202.5,,202.5,,202.5,90,M,,1996,Raw,D
DQ,Mustafa Arzhumanov,J,,90,,,,,,,,,,,,,,,,90,M,,1998,Raw,D
1,Evgeniy Rakhimov,O,Kazakhstan,89,,,,,,,,,,-290,-300,300,300,316,300,90,M,,1987,Raw,D
2,Roman Barsukov,O,Kyrgyzstan,86.8,,,,,,,,,,280,-290,-290,280,,280,90,M,,1981,Raw,D
3,Yuriy Pogudin,O,Kyrgyzstan,89.65,,,,,,,,,,250,265,-275,265,,265,90,M,,1989,Raw,D
DQ,Ruslan Chernikov,O,Kazakhstan,90,,,,,,,,,,,,,,,,90,M,,1985,Raw,D
DQ,Aleksandr Smirnov,O,Kazakhstan,90,,,,,,,,,,,,,,,,90,M,,1992,Raw,D
DQ,Vladislav Khozeev,O,Kyrgyzstan,90,,,,,,,,,,,,,,,,90,M,,1994,Raw,D
DQ,Vyacheslav Pozharov,O,Kazakhstan,90,,,,,,,,,,,,,,,,90,M,,1986,Raw,D
1,Azimdzhan Kadyrov,M1,Kyrgyzstan,90,,,,,,,,,,-180,200,220,220,240,220,90,M,,1976,Raw,D
1,Vyacheslav Bondarev,M3,Kazakhstan,90,,,,,,,,,,250,-265,-270,250,,250,90,M,,1968,Raw,D
1,Singh Vikasdeep,J,,98.3,,,,,,,,,,210,-230,230,230,,230,100,M,,1998,Raw,D
1,Aleksandr Belimov,O,Kyrgyzstan,95,,,,,,,,,,280,-290,290,290,,290,100,M,,1988,Raw,D
2,Oleg Altunin,O,Kyrgyzstan,96.55,,,,,,,,,,260,282.5,-300,282.5,,282.5,100,M,,1987,Raw,D
1,Vyacheslav Rimar,M1,Kazakhstan,91.9,,,,,,,,,,210,230,,230,,230,100,M,,1977,Raw,D
DQ,Konstantin Udalov,M1,Kazakhstan,100,,,,,,,,,,,,,,,,100,M,,1974,Raw,D
1,Valerian Metelnikov,M4,Kyrgyzstan,97.7,,,,,,,,,,110,-135,140,140,,140,100,M,,1961,Raw,D
DQ,Rudik Gyaurov,T3,Kazakhstan,110,,,,,,,,,,,,,,,,110,M,,1999,Raw,D
1,Sanzhar Sayatov,J,Kazakhstan,110,,,,,,,,,,200,215,,215,,215,110,M,,1996,Raw,D
DQ,Zhandaulet Yryskul,J,Kazakhstan,110,,,,,,,,,,,,,,,,110,M,,1996,Raw,D
1,Artur Lyubokonskis,O,Kyrgyzstan,106.55,,,,,,,,,,280,-305,-305,280,,280,110,M,,1984,Raw,D
DQ,Sergey Alnikov,O,Kazakhstan,110,,,,,,,,,,,,,,,,110,M,,1983,Raw,D
1,Dilshod Nazimov,M1,,110,,,,,,,,,,170,180,190,190,,190,110,M,,1974,Raw,D
1,Nizami Guliev,O,,112.5,,,,,,,,,,220,245,250,250,,250,125,M,,1988,Raw,D
1,Evgeniya Komanova,O,,50.2,,,,,,,,,,80,85,92.5,92.5,,92.5,52,F,,1983,Multi-ply,D
1,Elena Kozhevnikova,O,Kazakhstan,53.7,,,,,,,,,,75,80,85,85,,85,56,F,,1983,Multi-ply,D
1,Mirzobobur Nasriddinov,O,Tajikistan,80.9,,,,,,,,,,150,175,,175,,175,82.5,M,,1989,Multi-ply,D
1,Azizbek Mamadaliev,J,,88,,,,,,,,,,110,180,200,200,,200,90,M,,1997,Multi-ply,D
1,Akhverdi Akhmedov,O,,85.15,,,,,,,,,,210,220,230,230,,230,90,M,,1986,Multi-ply,D
1,Andrey Sheynin,M2,Kazakhstan,96.35,,,,,,,,,,210,220,230,230,,230,100,M,,1973,Multi-ply,D
1,Dilshod Nazimov,M1,,112.8,,,,,,,,,,100,130,150,150,,150,125,M,,1974,Multi-ply,D
1,Viktoriya Danilova,T2,Kyrgyzstan,56.35,,,,,,,,,,30,40,60,60,,60,60,F,,2002,Single-ply,D
1,Svetlana Kuzemtseva,O,Kazakhstan,63.95,,,,,,,,,,85,90,95,95,,95,67.5,F,,1990,Single-ply,D
DQ,Rakhmatulla Akhmedov,J,,60,,,,,,,,,,,,,,,,60,M,,1996,Single-ply,D
1,Artem Soldatenkov,O,,80.3,,,,,,,,,,150,,,150,,150,82.5,M,,1995,Single-ply,D
1,Somon Rasulov,J,Tajikistan,90,,,,,,,,,,190,,,190,,190,90,M,,1996,Single-ply,D
1,Yuriy Ustinov,M1,Russia,106.6,,,,,,,,,,250,260,,260,,260,110,M,Юрий Устинов,1975,Single-ply,D
